[gd_scene load_steps=3 format=2]

[ext_resource path="res://Scenes/newgame.gd" type="Script" id=1]
[ext_resource path="res://background-15.jpg" type="Texture" id=2]


[node name="MarginContainer" type="MarginContainer"]
anchor_right = 1.0
anchor_bottom = 1.0
margin_top = 60.0

[node name="HBoxContainer" type="HBoxContainer" parent="."]
margin_right = 1024.0
margin_bottom = 540.0
alignment = 1

[node name="VBoxContainer" type="VBoxContainer" parent="HBoxContainer"]
margin_left = 451.0
margin_right = 573.0
margin_bottom = 540.0
alignment = 1

[node name="BackToMainMenu" type="LinkButton" parent="HBoxContainer/VBoxContainer"]
margin_top = 263.0
margin_right = 122.0
margin_bottom = 277.0
text = "Back to Main Menu"
script = ExtResource( 1 )
scene_to_load = "mainmenu"

[node name="ParallaxBackground" type="ParallaxBackground" parent="."]

[node name="Sprite" type="Sprite" parent="ParallaxBackground"]
position = Vector2( 512.397, 299.728 )
scale = Vector2( 0.240487, 0.240487 )
texture = ExtResource( 2 )
[connection signal="pressed" from="HBoxContainer/VBoxContainer/BackToMainMenu" to="HBoxContainer/VBoxContainer/BackToMainMenu" method="_on_newgame_pressed"]
