[gd_scene load_steps=2 format=2]

[sub_resource type="RectangleShape2D" id=1]
extents = Vector2( 306.859, 74.1996 )

[node name="Area Trigger" type="Area2D"]

[node name="CollisionShape2D" type="CollisionShape2D" parent="."]
shape = SubResource( 1 )
[connection signal="body_entered" from="." to="." method="_on_Area_Trigger_body_entered"]
