[gd_scene load_steps=3 format=2]

[ext_resource path="res://whitetile.jpg" type="Texture" id=1]

[sub_resource type="RectangleShape2D" id=1]
extents = Vector2( 8.03985, 8.00307 )

[node name="tiles" type="Node2D"]

[node name="Sprite" type="Sprite" parent="."]
texture = ExtResource( 1 )

[node name="StaticBody2D" type="StaticBody2D" parent="Sprite"]

[node name="CollisionShape2D" type="CollisionShape2D" parent="Sprite/StaticBody2D"]
position = Vector2( 0, -0.0840168 )
shape = SubResource( 1 )
