[gd_scene load_steps=4 format=2]

[ext_resource path="res://Scenes/win.gd" type="Script" id=1]
[ext_resource path="res://orb-12.png" type="Texture" id=2]


[sub_resource type="CircleShape2D" id=1]
radius = 384.12

[node name="Area Trigger" type="Area2D"]
script = ExtResource( 1 )

[node name="Sprite" type="Sprite" parent="."]
position = Vector2( 0, -2.55652 )
texture = ExtResource( 2 )

[node name="CollisionShape2D" type="CollisionShape2D" parent="."]
position = Vector2( 0, -2.55652 )
shape = SubResource( 1 )
[connection signal="body_entered" from="." to="." method="_on_Area_Trigger_body_entered"]
